[
  {
    "name": "Google",
    "url": "https://www.google.com",
    "icon": "https://favicons.githubusercontent.com/www.google.com",
    "slug": "google",
    "status": "up",
    "uptime": "100.00%",
    "uptimeDay": "100.00%",
    "uptimeWeek": "100.00%",
    "uptimeMonth": "100.00%",
    "uptimeYear": "100.00%",
    "time": 128,
    "timeDay": 223,
    "timeWeek": 153,
    "timeMonth": 160,
    "timeYear": 128,
    "dailyMinutesDown": {}
  },
  {
    "name": "Personnes Décédées",
    "url": "https://deces.matchid.io/search?q=pompidou+georges",
    "icon": "https://avatars.githubusercontent.com/u/32673019?s=200&v=4",
    "slug": "personnes-decedees",
    "status": "up",
    "uptime": "99.27%",
    "uptimeDay": "100.00%",
    "uptimeWeek": "100.00%",
    "uptimeMonth": "100.00%",
    "uptimeYear": "99.27%",
    "time": 264,
    "timeDay": 379,
    "timeWeek": 306,
    "timeMonth": 316,
    "timeYear": 264,
    "dailyMinutesDown": {
      "2021-07-15": 679,
      "2021-07-14": 766,
      "2021-07-05": 27
    }
  },
  {
    "name": "IA Flash",
    "url": "https://iaflash.fr/",
    "icon": "https://favicons.githubusercontent.com/iaflash.fr",
    "slug": "ia-flash",
    "status": "up",
    "uptime": "99.97%",
    "uptimeDay": "100.00%",
    "uptimeWeek": "100.00%",
    "uptimeMonth": "100.00%",
    "uptimeYear": "99.97%",
    "time": 264,
    "timeDay": 187,
    "timeWeek": 279,
    "timeMonth": 273,
    "timeYear": 264,
    "dailyMinutesDown": {
      "2021-10-13": 66
    }
  },
  {
    "name": "Histovec",
    "url": "https://histovec.interieur.gouv.fr/histovec",
    "icon": "https://favicons.githubusercontent.com/histovec.interieur.gouv.fr",
    "slug": "histovec",
    "status": "up",
    "uptime": "99.52%",
    "uptimeDay": "100.00%",
    "uptimeWeek": "100.00%",
    "uptimeMonth": "99.19%",
    "uptimeYear": "99.52%",
    "time": 945,
    "timeDay": 1736,
    "timeWeek": 950,
    "timeMonth": 943,
    "timeYear": 945,
    "dailyMinutesDown": {
      "2021-11-24": 205,
      "2021-11-15": 35,
      "2021-11-09": 35,
      "2021-11-08": 21,
      "2021-11-06": 26,
      "2021-11-04": 33,
      "2021-11-01": 45,
      "2021-10-31": 43,
      "2021-10-30": 25,
      "2021-10-27": 35,
      "2021-10-26": 20,
      "2021-09-02": 22,
      "2021-08-31": 74,
      "2021-08-18": 16,
      "2021-08-12": 35,
      "2021-08-11": 21,
      "2021-08-09": 23,
      "2021-08-04": 15,
      "2021-08-03": 28,
      "2021-07-23": 29,
      "2021-07-21": 63,
      "2021-07-20": 38,
      "2021-07-19": 16,
      "2021-07-17": 32,
      "2021-07-16": 34,
      "2021-07-14": 34,
      "2021-07-08": 21
    }
  },
  {
    "name": "API Personnes décédées",
    "url": "https://deces.matchid.io/deces/api/v1/search?q=pompidou%20georges&fuzzy=false",
    "icon": "https://avatars.githubusercontent.com/u/32673019?s=200&v=4",
    "slug": "api-personnes-decedees",
    "status": "up",
    "uptime": "92.97%",
    "uptimeDay": "100.00%",
    "uptimeWeek": "100.00%",
    "uptimeMonth": "100.00%",
    "uptimeYear": "92.97%",
    "time": 655,
    "timeDay": 404,
    "timeWeek": 394,
    "timeMonth": 373,
    "timeYear": 655,
    "dailyMinutesDown": {
      "2021-08-17": 1071,
      "2021-08-16": 1440,
      "2021-08-15": 1440,
      "2021-08-14": 1440,
      "2021-08-13": 1440,
      "2021-08-12": 1440,
      "2021-08-11": 1440,
      "2021-08-10": 1440,
      "2021-08-09": 715,
      "2021-07-30": 17,
      "2021-07-15": 676,
      "2021-07-14": 766,
      "2021-07-06": 755,
      "2021-07-05": 143
    }
  }
]